\shorthandoff{>}

\begin{tikzpicture}
	% V1 Stack

	\draw
		[fill = LightSkyBlue] (-0.1, 3.9)
		rectangle ++(3.2, 1.2)
		++(-3, -0.6)
		node [right] {\texttt{v1}}
	;
	\draw
		[fill = LemonChiffon] (0.8, 4)
		rectangle ++(1, 1)
		node [midway] {\texttt{3}}
	;
	\draw
		[fill = LemonChiffon] (2, 4)
		rectangle ++(1, 1)
		node [midway] (V1-Ptr) {}
	;

	\draw [->, thick] (V1-Ptr) to (4.8, 3.5);

	% Copy Stack

	\draw
		[fill = LightSkyBlue] (-0.1, 1.9)
		rectangle ++(3.2, 1.2)
		++(-2.75, -0.6)
		node {\texttt{copy}}
	;
	\draw
		[fill = LimeGreen!50] (0.8, 2)
		rectangle ++(1, 1)
		node [midway] {\texttt{2}}
	;
	\draw
		[fill = LemonChiffon] (2, 2)
		rectangle ++(1, 1)
		node [midway] (Copy-Ptr) {}
	;

	\draw [->, thick, dashed] (1.3, 1.8) to (1.3, 1.2);

	% V2 Stack

	\draw
		[fill = LightSkyBlue] (-0.1, -0.1)
		rectangle ++(3.2, 1.2)
		++(-3, -0.6)
		node [right] {\texttt{v2}}
	;
	\draw
		[fill = LemonChiffon] (0.8, 0)
		rectangle ++(1, 1)
		node [midway] {\texttt{2}}
	;
	\draw
		[fill = LemonChiffon] (2, 0)
		rectangle ++(1, 1)
		node [midway] (V2-Ptr) {}
	;

	\draw [->, thick] (V2-Ptr) to (4.8, -0.5);

	% V1 Heap

	\draw
		[fill = LemonChiffon] (5, 3)
		rectangle ++(1, 1)
		node [midway] {\texttt{7}}
	;
	\draw
		[fill = LemonChiffon] (6, 3)
		rectangle ++(1, 1)
		node [midway] {\texttt{3}}
	;
	\draw
		[fill = LemonChiffon] (7, 3)
		rectangle ++(1, 1)
		node [midway] {\texttt{4}}
	;

	% V2 Heap

	\draw
		[fill = LemonChiffon] (5, -1)
		rectangle ++(1, 1)
		node [midway] {\texttt{5}}
	;
	\draw
		[fill = LemonChiffon] (6, -1)
		rectangle ++(1, 1)
		node [midway] {\texttt{1}}
	;
\end{tikzpicture}

\shorthandon{>}
