\shorthandoff{>}

\begin{tikzpicture}
	% V1 Stack

	\draw
		[fill = LightSkyBlue] (-0.1, 1.9)
		rectangle ++(3.2, 1.2)
		++(-3, -0.6)
		node [right] {\texttt{v1}}
	;
	\draw
		[fill = LemonChiffon] (0.8, 2)
		rectangle ++(1, 1)
		node [midway] {\texttt{3}}
	;
	\draw
		[fill = LemonChiffon] (2, 2)
		rectangle ++(1, 1)
		node [midway] (V1-Ptr1) {}
	;

	\draw [->, thick] (V1-Ptr1) to (4.8, 3.6);

	% V2 Stack

	\draw
		[fill = LightSkyBlue] (-0.1, -0.1)
		rectangle ++(3.2, 1.2)
		++(-3, -0.6)
		node [right] {\texttt{v1}}
	;
	\draw
		[fill = LemonChiffon] (0.8, 0)
		rectangle ++(1, 1)
		node [midway] {\texttt{3}}
	;
	\draw
		[fill = LemonChiffon] (2, 0)
		rectangle ++(1, 1)
		node [midway] (V1-Ptr2) {}
	;

	\draw [->, thick] (V1-Ptr2) to (4.8, 3.4);

	% V1 Heap

	\draw
		[fill = LemonChiffon] (5, 3)
		rectangle ++(1, 1)
		node [midway] {\texttt{7}}
	;
	\draw
		[fill = LemonChiffon] (6, 3)
		rectangle ++(1, 1)
		node [midway] {\texttt{3}}
	;
	\draw
		[fill = LemonChiffon] (7, 3)
		rectangle ++(1, 1)
		node [midway] {\texttt{4}}
	;
\end{tikzpicture}

\shorthandon{>}
